{
	"fields": [
		{
	  "name": "nome", "constraints": { "required": true }
		},
		{
	  "name": "nome_mae", "constraints": { "required": false }
		},
		{
	  "name": "data_nascimento", "constraints": { "required": false }
		},
		{
	  "name": "cpf", "constraints": { "required": false }
		},
		{
	  "name": "nome_pai", "constraints": { "required": false }
		},
		{
	  "name": "rg", "constraints": { "required": false }
		},
		{
	  "name": "rg_uf_expedicao", "constraints": { "required": false }
		},
		{
	  "name": "rg_orgao_expedidor", "constraints": { "required": false }
		},
		{
	  "name": "rg_data_emissao", "constraints": { "required": false }
		},
		{
	  "name": "estado_civil", "constraints": { "required": false }
		},
		{
	  "name": "email", "constraints": { "required": false }
		},
		{
	  "name": "email_institucional", "constraints": { "required": false }
		},
		{
	  "name": "tipo_sanguineo", "constraints": { "required": false }
		},
		{
	  "name": "escolaridade_nivel", "constraints": { "required": false }
		},
		{
	  "name": "escolaridade_nome_curso", "constraints": { "required": false }
		},
		{
	  "name": "escolaridade_nome_instituicao", "constraints": { "required": false }
		},
		{
	  "name": "escolaridade_ano_conclusao", "constraints": { "required": false }
		},
		{
	  "name": "sexo", "constraints": { "required": false }
		},
		{
	  "name": "tipo_deficiencia", "constraints": { "required": false }
		},
		{
	  "name": "pais_origem", "constraints": { "required": false }
		},
		{
	  "name": "municipio_naturalidade", "constraints": { "required": false }
		},
		{
	  "name": "endereco_cep", "constraints": { "required": false }
		},
		{
	  "name": "endereco_municipio", "constraints": { "required": false }
		},
		{
	  "name": "endereco_logradouro_tipo", "constraints": { "required": false }
		},
		{
	  "name": "endereco_tipo_imovel", "constraints": { "required": false }
		},
		{
	  "name": "endereco_bairro", "constraints": { "required": false }
		},
		{
	  "name": "endereco_logradouro", "constraints": { "required": false }
		},
		{
	  "name": "endereco_logradouro_complemento", "constraints": { "required": false }
		},
		{
	  "name": "endereco_logradouro_numero", "constraints": { "required": false }
		},
		{
	  "name": "telefone_ddd", "constraints": { "required": false }
		},
		{
	  "name": "telefone", "constraints": { "required": false }
		},
		{
	  "name": "celular_ddd", "constraints": { "required": false }
		},
		{
	  "name": "celular", "constraints": { "required": false }
		},
		{
	  "name": "pasep_pis_nit", "constraints": { "required": false }
		},
		{
	  "name": "cor_raca", "constraints": { "required": false }
		},
		{
	  "name": "data_ingresso_servico_publico", "constraints": { "required": false }
		},
		{
	  "name": "cnh", "constraints": { "required": false }
		},
		{
	  "name": "cnh_data_emissao", "constraints": { "required": false }
		},
		{
	  "name": "cnh_data_validade", "constraints": { "required": false }
		},
		{
	  "name": "cnh_categorias", "constraints": { "required": false }
		},
		{
	  "name": "ctps", "constraints": { "required": false }
		},
		{
	  "name": "ctps_serie", "constraints": { "required": false }
		},
		{
	  "name": "ctps_data_emissao", "constraints": { "required": false }
		},
		{
	  "name": "ctps_uf_expedicao", "constraints": { "required": false }
		},
		{
	  "name": "titulo_eleitor_numero", "constraints": { "required": false }
		},
		{
	  "name": "titulo_eleitor_zona", "constraints": { "required": false }
		},
		{
	  "name": "titulo_eleitor_secao_eleitoral", "constraints": { "required": false }
		},
		{
	  "name": "titulo_eleitor_expedicao_uf", "constraints": { "required": false }
		},
		{
	  "name": "data_falecimento", "constraints": { "required": false }
		},
		{
	  "name": "certidao_obito_termo", "constraints": { "required": false }
		},
		{
	  "name": "certidao_obito_livro", "constraints": { "required": false }
		},
		{
	  "name": "certidao_obito_folha", "constraints": { "required": false }
		},
		{
	  "name": "certidao_obito_data_emissao", "constraints": { "required": false }
		},
		{
	  "name": "cartorio_obito_cnpj", "constraints": { "required": false }
		},
		{
	  "name": "cartorio_obito_nome", "constraints": { "required": false }
		},
		{
	  "name": "cartorio_obito_cep", "constraints": { "required": false }
		},
		{
	  "name": "cartorio_obito_municipio", "constraints": { "required": false }
		},
		{
	  "name": "cartorio_obito_logradouro_tipo", "constraints": { "required": false }
		},
		{
	  "name": "cartorio_obito_bairro", "constraints": { "required": false }
		},
		{
	  "name": "cartorio_obito_logradouro", "constraints": { "required": false }
		},
		{
	  "name": "cartorio_obito_logradouro_complemento", "constraints": { "required": false }
		},
		{
	  "name": "cartorio_obito_logradouro_numero", "constraints": { "required": false }
		},
		{
	  "name": "estrangeiro_naturalizado", "constraints": { "required": false }
		},
		{
	  "name": "estrangeiro_visto_permanente", "constraints": { "required": false }
		},
		{
	  "name": "estrangeiro_data_chegada_brasil", "constraints": { "required": false }
		},
		{
	  "name": "estrangeiro_rg", "constraints": { "required": false }
		},
		{
	  "name": "estrangeiro_rg_orgao_emissor", "constraints": { "required": false }
		},
		{
	  "name": "estrangeiro_rg_uf_expedicao", "constraints": { "required": false }
		},
		{
	  "name": "estrangeiro_rg_data_emissao", "constraints": { "required": false }
		},
		{
	  "name": "conselho_classe_nome", "constraints": { "required": false }
		},
		{
	  "name": "conselho_classe_numero", "constraints": { "required": false }
		},
		{
	  "name": "conselho_classe_uf_expedicao", "constraints": { "required": false }
		},
		{
	  "name": "conselho_classe_data_emissao", "constraints": { "required": false }
		},
		{
	  "name": "conselho_classe_data_validade", "constraints": { "required": false }
		},
		{
	  "name": "assistencia_saude_rede_atendimento", "constraints": { "required": false }
		},
		{
	  "name": "assistencia_saude_plano_operadora", "constraints": { "required": false }
		},
		{
	  "name": "assistencia_saude_plano_nome", "constraints": { "required": false }
		},
		{
	  "name": "assistencia_saude_plano_titular", "constraints": { "required": false }
		},
		{
	  "name": "informatica_conhecimentos_gerais", "constraints": { "required": false }
		},
		{
	  "name": "informatica_conhecimentos_nivel", "constraints": { "required": false }
		},
		{
	  "name": "representatividade_tipo", "constraints": { "required": false }
		},
		{
	  "name": "representatividade_data_inicio", "constraints": { "required": false }
		},
		{
	  "name": "representatividade_data_termino_previsto", "constraints": { "required": false }
		},
		{
	  "name": "representante_legal_nome", "constraints": { "required": false }
		},
		{
	  "name": "representante_legal_cpf", "constraints": { "required": false }
		},
		{
	  "name": "representante_legal_rg", "constraints": { "required": false }
		},
		{
	  "name": "representante_legal_rg_orgao_expedidor", "constraints": { "required": false }
		},
		{
	  "name": "representante_legal_rg_uf_expedicao", "constraints": { "required": false }
		},
		{
	  "name": "representante_legal_rg_data_emissao", "constraints": { "required": false }
		},
		{
	  "name": "representante_legal_data_nascimento", "constraints": { "required": false }
		},
		{
	  "name": "representante_legal_sexo", "constraints": { "required": false }
		},
		{
	  "name": "representante_legal_endereco_cep", "constraints": { "required": false }
		},
		{
	  "name": "representante_legal_endereco_municipio", "constraints": { "required": false }
		},
		{
	  "name": "representante_legal_endereco_logradouro_tipo", "constraints": { "required": false }
		},
		{
	  "name": "representante_legal_endereco_tipo_imovel", "constraints": { "required": false }
		},
		{
	  "name": "representante_legal_endereco_bairro", "constraints": { "required": false }
		},
		{
	  "name": "representante_legal_endereco_logradouro", "constraints": { "required": false }
		},
		{
	  "name": "representante_legal_endereco_logradouro_complemento", "constraints": { "required": false }
		},
		{
	  "name": "representante_legal_endereco_logradouro_numero", "constraints": { "required": false }
		},
		{
	  "name": "representante_legal_telefone_ddd", "constraints": { "required": false }
		},
		{
	  "name": "representante_legal_telefone", "constraints": { "required": false }
		},
		{
	  "name": "representante_legal_celular_ddd", "constraints": { "required": false }
		},
		{
	  "name": "representante_legal_celular", "constraints": { "required": false }
		},
		{
	  "name": "representante_legal_email", "constraints": { "required": false }
		}
	]
}
