"codigo";"nome"
50;"Maioridade"
51;"Óbito"
52;"Separação judicial"
53;"Divórcio"
54;"Emancipação"
55;"Decisão judicial"
56;"Cessação de invalidez"
57;"Independência econômica"
58;"Revogação da tutela"
59;"Exclusão expressa pelo servidor"
99;"Outros"
