"codigo";"nome"
10;"Nascimento"
11;"Invalidez"
12;"Casamento"
13;"União estável"
14;"Adoção"
15;"Decisão judicial"
16;"Dependência econômica"
17;"Filho póstumo"
18;"Tutela"
19;"Designação expressa pelo servidor"
98;"Outros"
