"codigo";"tipos_vinculo_funcional"
1;"Servidor(a) de cargo efetivo"
2;"Servidor(a) estável (outras situações)"
3;"Servidor(a) em cargo temporário"
4;"Servidor(a) em cargo comissionado exclusivo"
5;"Servidor(a) exercendo mandato eletivo"
6;"Empregado(a) público (CLT)"
7;"Servidor(a) estável não efetivo na forma do Art. 19 do ADCT"
8;"Servidor(a) - Militar"
99;"Outros"
